…
## Storm data

Get storm data for the year 2010


```r
storm_data(year = 2010)
#> # A tibble: 2,855 × 195
#>       serial_num season   num basin sub_basin  name            iso_time
#>            <chr>  <int> <int> <chr>     <chr> <chr>               <chr>
#> 1  2009317S10073   2010     1    SI        MM  ANJA 2009-11-13 06:00:00
#> 2  2009317S10073   2010     1    SI        MM  ANJA 2009-11-13 12:00:00
#> 3  2009317S10073   2010     1    SI        MM  ANJA 2009-11-13 18:00:00
#> 4  2009317S10073   2010     1    SI        MM  ANJA 2009-11-14 00:00:00
#> 5  2009317S10073   2010     1    SI        MM  ANJA 2009-11-14 06:00:00
#> 6  2009317S10073   2010     1    SI        MM  ANJA 2009-11-14 12:00:00
#> 7  2009317S10073   2010     1    SI        MM  ANJA 2009-11-14 18:00:00
#> 8  2009317S10073   2010     1    SI        MM  ANJA 2009-11-15 00:00:00
#> 9  2009317S10073   2010     1    SI        MM  ANJA 2009-11-15 06:00:00
#> 10 2009317S10073   2010     1    SI        MM  ANJA 2009-11-15 12:00:00
#> # ... with 2,845 more rows, and 188 more variables: nature <chr>,
#> #   latitude <dbl>, longitude <dbl>, wind.wmo. <dbl>, pres.wmo. <dbl>,
#> #   center <chr>, wind.wmo..percentile <dbl>, pres.wmo..percentile <dbl>,
#> #   track_type <chr>, latitude_for_mapping <dbl>,
#> #   longitude_for_mapping <dbl>, current.basin <chr>,
#> #   hurdat_atl_lat <dbl>, hurdat_atl_lon <dbl>, hurdat_atl_grade <dbl>,
#> #   hurdat_atl_wind <dbl>, hurdat_atl_pres <dbl>, td9636_lat <dbl>,
…
