…
```r
ncdc(datasetid = "GHCND", stationid = id, datatypeid = "PRCP", startdate = "2012-10-01", enddate = "2013-01-01")
#> $meta
#> $meta$totalCount
#> [1] 22
#> 
#> $meta$pageCount
#> [1] 25
#> 
#> $meta$offset
#> [1] 1
#> 
#> 
#> $data
#> # A tibble: 22 x 8
#>    date              datatype station         value fl_m  fl_q  fl_so fl_t 
#>    <chr>             <chr>    <chr>           <int> <chr> <chr> <chr> <chr>
#>  1 2012-10-01T00:00… PRCP     GHCND:US1FLCT0…    13 ""    ""    N     ""   
#>  2 2012-10-02T00:00… PRCP     GHCND:US1FLCT0…     3 ""    ""    N     ""   
#>  3 2012-10-03T00:00… PRCP     GHCND:US1FLCT0…    15 ""    ""    N     ""   
#>  4 2012-10-04T00:00… PRCP     GHCND:US1FLCT0…   142 ""    ""    N     ""   
#>  5 2012-10-05T00:00… PRCP     GHCND:US1FLCT0…   244 ""    ""    N     ""   
#>  6 2012-10-06T00:00… PRCP     GHCND:US1FLCT0…   655 ""    ""    N     ""   
#>  7 2012-10-07T00:00… PRCP     GHCND:US1FLCT0…    23 ""    ""    N     ""   
#>  8 2012-10-08T00:00… PRCP     GHCND:US1FLCT0…     0 ""    ""    N     ""   
#>  9 2012-10-09T00:00… PRCP     GHCND:US1FLCT0…     3 ""    ""    N     ""   
#> 10 2012-10-10T00:00… PRCP     GHCND:US1FLCT0…     0 ""    ""    N     ""   
#> # … with 12 more rows
…
