…
## Tabular data

You can get tabular data for basins, storms, or years, (or all data). `storm_data()` and the next function `storm_shp()` figure out what files to get, and gets them from an ftp server, and saves them to your machine. Do let us know if you have any problems with paths on your machine, and we'll fix 'em. The result from `storm_data()` is a `dplyr`-like data.frame with a easy summary that makes large datasets easy to view. 

First, by basin (one of EP, NA, NI, SA, SI, SP, or WP)


```r
storm_data(basin='WP')
```

```
#> # A tibble: 39,584 × 195
#>       serial_num season   num basin sub_basin      name
#>            <chr>  <int> <int> <chr>     <chr>     <chr>
#> 1  1884177N17124   1884     1    WP        MM NOT NAMED
#> 2  1884177N17124   1884     1    WP        MM NOT NAMED
#> 3  1884177N17124   1884     1    WP        MM NOT NAMED
#> 4  1884177N17124   1884     1    WP        MM NOT NAMED
#> 5  1884177N17124   1884     1    WP        MM NOT NAMED
#> 6  1884177N17124   1884     1    WP        MM NOT NAMED
#> 7  1884177N17124   1884     1    WP        MM NOT NAMED
#> 8  1884177N17124   1884     1    WP        MM NOT NAMED
#> 9  1884177N17124   1884     1    WP        MM NOT NAMED
#> 10 1884177N17124   1884     1    WP        MM NOT NAMED
#> # ... with 39,574 more rows, and 189 more variables: iso_time <chr>,
#> #   nature <chr>, latitude <dbl>, longitude <dbl>, wind.wmo. <dbl>,
#> #   pres.wmo. <dbl>, center <chr>, wind.wmo..percentile <dbl>,
#> #   pres.wmo..percentile <dbl>, track_type <chr>,
#> #   latitude_for_mapping <dbl>, longitude_for_mapping <dbl>,
#> #   current.basin <chr>, hurdat_atl_lat <dbl>, hurdat_atl_lon <dbl>,
#> #   hurdat_atl_grade <dbl>, hurdat_atl_wind <dbl>, hurdat_atl_pres <dbl>,
#> #   td9636_lat <dbl>, td9636_lon <dbl>, td9636_grade <dbl>,
#> #   td9636_wind <dbl>, td9636_pres <dbl>, reunion_lat <dbl>,
…
Or by year, from 1842 to 2014.


```r
storm_data(year=1941)
```

```
#> # A tibble: 1,766 × 195
#>       serial_num season   num basin sub_basin      name
#>            <chr>  <int> <int> <chr>     <chr>     <chr>
#> 1  1940215S18149   1941     1    SP        EA NOT NAMED
#> 2  1940215S18149   1941     1    SP        EA NOT NAMED
#> 3  1940215S18149   1941     1    SP        EA NOT NAMED
#> 4  1940215S18149   1941     1    SP        EA NOT NAMED
#> 5  1940215S18149   1941     1    SP        EA NOT NAMED
#> 6  1940215S18149   1941     1    SP        EA NOT NAMED
#> 7  1940215S18149   1941     1    SP        EA NOT NAMED
#> 8  1940215S18149   1941     1    SP        EA NOT NAMED
#> 9  1940215S18149   1941     1    SP        EA NOT NAMED
#> 10 1940215S18149   1941     1    SP        EA NOT NAMED
#> # ... with 1,756 more rows, and 189 more variables: iso_time <chr>,
#> #   nature <chr>, latitude <dbl>, longitude <dbl>, wind.wmo. <dbl>,
#> #   pres.wmo. <dbl>, center <chr>, wind.wmo..percentile <dbl>,
#> #   pres.wmo..percentile <dbl>, track_type <chr>,
#> #   latitude_for_mapping <dbl>, longitude_for_mapping <dbl>,
#> #   current.basin <chr>, hurdat_atl_lat <dbl>, hurdat_atl_lon <dbl>,
#> #   hurdat_atl_grade <dbl>, hurdat_atl_wind <dbl>, hurdat_atl_pres <dbl>,
#> #   td9636_lat <dbl>, td9636_lon <dbl>, td9636_grade <dbl>,
#> #   td9636_wind <dbl>, td9636_pres <dbl>, reunion_lat <dbl>,
…
